I:\Downloads>docker container run --rm debian bash --version                    <<< rm remove da lista o que foi designou
GNU bash, version 5.0.3(1)-release (x86_64-pc-linux-gnu)
Copyright (C) 2019 Free Software Foundation, Inc.
License GPLv3+: GNU GPL version 3 or later <http://gnu.org/licenses/gpl.html>

This is free software; you are free to change and redistribute it.
There is NO WARRANTY, to the extent permitted by law.

I:\Downloads>docker container ps -a
CONTAINER ID        IMAGE               COMMAND             CREATED             STATUS                    PORTS               NAMES
19ca82590d98        hello-world         "/hello"            22 hours ago        Exited (0) 22 hours ago                       vibrant_lumiere
d927461ac99e        debian              "bash --version"    23 hours ago        Exited (0) 23 hours ago                       awesome_wright
d9e702731e77        hello-world         "/hello"            23 hours ago        Exited (0) 23 hours ago                       beautiful_hermann

I:\Downloads>